Aprendizaje Máquina - 8 Incertidumbre en clasificación
…
conjuntos_conf <- preds_larga_tbl |> group_by(id) |> 
  filter(prob > q) |> 
  select(id, articulo = articulo_prob, prob)
conjuntos_conf

# A tibble: 14,557 × 3
# Groups:   id [10,000]
      id articulo     prob
   <int> <chr>       <dbl>
 1     1 bota        0.860
 2     2 suéter      0.934
 3     3 pantalón    1.00 
 4     4 pantalón    1.00 
 5     5 camisa      0.572
 6     5 playera/top 0.262
 7     6 pantalón    0.999
 8     7 abrigo      0.949
 9     8 camisa      0.791
10     8 abrigo      0.155
# … with 14,547 more rows
# ℹ Use `print(n = ...)` to see more rows
…
